{
   "commands":[
      {
         "isPrintable":true,
         "tagCashierINN":"123456789047",
         "tagCashierName":"Кассирыч Кассир Кассович",
         "type":"xReport"
      }
   ],
   "creItemId":"$CREITEMID"
}