{
  "commands": [
    {
      "sno": "sno_osn",
      "type": "sale",
      "lines": [
        {
          "ppr": "goods",
          "psr": "prepayment_100",
          "tax": "vat_none",
          "price": 50000,
          "title": "Телевизор",
          "total": 50000,
          "quantity": 1,
          "tagTrueSign": "136222000058810918QWERDFEWT5123456YGHFDSWERT56YUIJHGFDSAERTYUIOKJ8HGFVCXZSDLKJHGFDSAOIPLMNBGHJYTRDFGHJKIREWSDFGHJIOIUTDWQASDFRETYUIUYGTREDFGHUYTREWQWE"
        }
      ],
      "amountCash": 30000,
      "amountElectronic": 20000,
      "amountPrepaid": 0,
      "amountCredit": 0,
      "amountIncoming": 0,
      "isPrintable": true,
      "tagCashierINN": "123456789047",
      "tagCashierName": "Кассирыч Кассир Кассович",
      "tagClientTitle": "НАЗВАНИЕ_ОРГАНИЗАЦИИ",
      "tagClientINN": "277068433684",
      "tagClientContact": "xxxxxxxxxxxxxxxx@mail.ru",
      "tagSaleLocation": "магазин №1 Адрес магазина"
    }
  ],
  "creItemId": "0e92b72c-a16b-2221-df00-ac17a3cc5c73"
}
