{
  "commands": [
    {
      "isPrintable": true,
      "tagCashierINN": "123456789047",
      "tagCashierName": "Кассирыч Кассир Кассович",
      "type": "closeSession"
    }
  ],
  "creItemId": "0e92b72c-a16b-2221-df00-ac17a3cc5c73"
}
