{
  "commands": [
    {
      "type": "sale",
      "sno": "sno_osn",
      "tagClientContact": "rems_bookkeeping@mail.ru",
      "lines": [
        {
          "ppr": "service",
          "psr": "full_settle",
          "tax": "vat_none",
          "price": 1040.87,
          "title": "Жилищно-коммунальные услуги (л/с 34361)",
          "total": 1040.87,
          "quantity": 1
        }
      ],
      "amountCash": 0,
      "amountElectronic": 1040.87,
      "amountPrepaid": 0,
      "amountCredit": 0,
      "amountIncoming": 0,
      "isPrintable": true
    }
  ],
  "creItemId": "0e92b72c-a16b-2221-df00-ac17a3cc5c73"
}
